
-
    request:
        method: GET
        url: 'http://api.lvh.me:3000/curated_batches/68'
        headers:
            Host: 'api.lvh.me:3000'
            Accept-Encoding: null
            User-Agent: 'GuzzleHttp/6.0.2 curl/7.38.0 PHP/5.6.11'
            Authorization: 'Bearer 6552724cd07a5a0e06a4f7e4dce7e316f86b7a2efa1e2df8f7cd0079856d9773'
            Accept: null
    response:
        status:
            http_version: '1.1'
            code: '200'
            message: 'OK '
        headers:
            Access-Control-Allow-Origin: '*'
            Access-Control-Request-Method: '*'
            Cache-Control: 'max-age=7200, public'
            Content-Type: application/json
            Content-Length: '701'
            Etag: 'W/"d4b67f647ae293e57250cd0f619d6393"'
            X-Request-Id: ea1c8f5f-c863-49c1-a419-1bd56b7cc12d
            X-Ratelimit-Limit: '5000'
            X-Ratelimit-Remaining: '4983'
            X-Runtime: '0.039869'
            Server: 'WEBrick/1.3.1 (Ruby/2.1.5/2014-11-13)'
            Date: 'Mon, 13 Jul 2015 20:30:11 GMT'
            Connection: Keep-Alive
        body: '{"id":68,"published_at":"2015-02-24T17:04:17-05:00","curator":{"id":"bP9NPM-M-6Q","username":"jamesallworth","name":"James Allworth","bio":"Director @Medallia, writer for Harvard Business Review, co-author of ''How Will You Measure Your Life?'' with Clayton Christensen, and co-host of ExponentFM","links":{"self":"http://api.lvh.me:3000/users/jamesallworth","html":"http://lvh.me:3000/jamesallworth","photos":"http://api.lvh.me:3000/users/jamesallworth/photos"}},"links":{"self":"http://api.lvh.me:3000/curated_batches/68","html":"http://lvh.me:3000/curated_batches/68","photos":"http://api.lvh.me:3000/curated_batches/68/photos","download":"https://download.unsplash.com/zip-archives/68-archive.zip"}}'
-
    request:
        method: GET
        url: 'http://api.lvh.me:3000/curated_batches?page=1&per_page=10'
        headers:
            Host: 'api.lvh.me:3000'
            Accept-Encoding: null
            User-Agent: 'GuzzleHttp/6.0.2 curl/7.38.0 PHP/5.6.11'
            Authorization: 'Bearer 6552724cd07a5a0e06a4f7e4dce7e316f86b7a2efa1e2df8f7cd0079856d9773'
            Accept: null
    response:
        status:
            http_version: '1.1'
            code: '200'
            message: 'OK '
        headers:
            Access-Control-Allow-Origin: '*'
            Access-Control-Request-Method: '*'
            Link: '<http://api.lvh.me:3000/curated_batches?page=8&per_page=10>; rel="last", <http://api.lvh.me:3000/curated_batches?page=2&per_page=10>; rel="next"'
            X-Total: '76'
            X-Per-Page: '10'
            Cache-Control: 'max-age=7200, public'
            Content-Type: application/json
            Content-Length: '6459'
            Etag: 'W/"79b8ad32393d20d4d93711a1a5446d89"'
            X-Request-Id: acd91254-4f01-48b5-8f61-d0a9acd8ca5e
            X-Ratelimit-Limit: '5000'
            X-Ratelimit-Remaining: '4981'
            X-Runtime: '0.045275'
            Server: 'WEBrick/1.3.1 (Ruby/2.1.5/2014-11-13)'
            Date: 'Mon, 13 Jul 2015 20:30:11 GMT'
            Connection: Keep-Alive
        body: '[{"id":75,"published_at":"2015-06-14T09:07:16-04:00","curator":{"id":"1ttotxxPHUo","username":"joelgascoigne","name":"Joel Gascoigne","bio":"Co-founder and CEO at Buffer","links":{"self":"http://api.lvh.me:3000/users/joelgascoigne","html":"http://lvh.me:3000/joelgascoigne","photos":"http://api.lvh.me:3000/users/joelgascoigne/photos"}},"links":{"self":"http://api.lvh.me:3000/curated_batches/75","html":"http://lvh.me:3000/curated_batches/75","photos":"http://api.lvh.me:3000/curated_batches/75/photos","download":"https://download.unsplash.com/zip-archives/75-archive.zip"}},{"id":60,"published_at":"2015-06-04T13:59:05-04:00","curator":{"id":"TwaLpOfb4TE","username":"brit","name":"Brit Morin","bio":"Founder and CEO of Brit + Co: Innovative ideas, apps, and products to help you live more creatively. Author of Homemakers.","links":{"self":"http://api.lvh.me:3000/users/brit","html":"http://lvh.me:3000/brit","photos":"http://api.lvh.me:3000/users/brit/photos"}},"links":{"self":"http://api.lvh.me:3000/curated_batches/60","html":"http://lvh.me:3000/curated_batches/60","photos":"http://api.lvh.me:3000/curated_batches/60/photos","download":"https://download.unsplash.com/zip-archives/60-archive.zip"}},{"id":80,"published_at":"2015-05-25T13:36:20-04:00","curator":{"id":"QC-TBS1DkoM","username":"jeffreyzeldman","name":"Jeffrey Zeldman","bio":"Founder of A List Apart, An Event Apart, A Book Apart, and Happy Cog. Godfather of the Web and one of the most influential people in web design and blogging.","links":{"self":"http://api.lvh.me:3000/users/jeffreyzeldman","html":"http://lvh.me:3000/jeffreyzeldman","photos":"http://api.lvh.me:3000/users/jeffreyzeldman/photos"}},"links":{"self":"http://api.lvh.me:3000/curated_batches/80","html":"http://lvh.me:3000/curated_batches/80","photos":"http://api.lvh.me:3000/curated_batches/80/photos","download":"https://download.unsplash.com/zip-archives/80-archive.zip"}},{"id":81,"published_at":"2015-05-16T03:39:37-04:00","curator":{"id":"-Z0DZ6VOuQI","username":"chrismessina","name":"Chris Messina","bio":"Chris Messina is known for inventing the hashtag. He is a designer and technologist and previously worked at Google, started the BarCamp and coworking communities, and advanced a number of important open and social web technologies.","links":{"self":"http://api.lvh.me:3000/users/chrismessina","html":"http://lvh.me:3000/chrismessina","photos":"http://api.lvh.me:3000/users/chrismessina/photos"}},"links":{"self":"http://api.lvh.me:3000/curated_batches/81","html":"http://lvh.me:3000/curated_batches/81","photos":"http://api.lvh.me:3000/curated_batches/81/photos","download":"https://download.unsplash.com/zip-archives/81-archive.zip"}},{"id":78,"published_at":"2015-05-05T14:37:55-04:00","curator":{"id":"5epYk5QC6Wk","username":"kirbyferguson","name":"Kirby Ferguson","bio":"Filmmaker, writer, and speaker. Creator of ''Everything is a Remix'' and ''This is Not a Conspiracy Theory''.","links":{"self":"http://api.lvh.me:3000/users/kirbyferguson","html":"http://lvh.me:3000/kirbyferguson","photos":"http://api.lvh.me:3000/users/kirbyferguson/photos"}},"links":{"self":"http://api.lvh.me:3000/curated_batches/78","html":"http://lvh.me:3000/curated_batches/78","photos":"http://api.lvh.me:3000/curated_batches/78/photos","download":"https://download.unsplash.com/zip-archives/78-archive.zip"}},{"id":79,"published_at":"2015-04-25T13:42:53-04:00","curator":{"id":"9mv37akUlbQ","username":"mgsiegler","name":"M.G. Siegler","bio":"General Partner @ Google Ventures","links":{"self":"http://api.lvh.me:3000/users/mgsiegler","html":"http://lvh.me:3000/mgsiegler","photos":"http://api.lvh.me:3000/users/mgsiegler/photos"}},"links":{"self":"http://api.lvh.me:3000/curated_batches/79","html":"http://lvh.me:3000/curated_batches/79","photos":"http://api.lvh.me:3000/curated_batches/79/photos","download":"https://download.unsplash.com/zip-archives/79-archive.zip"}},{"id":77,"published_at":"2015-04-15T14:18:58-04:00","curator":{"id":"0fisT_x1uBY","username":"chrisguillebeau","name":"Chris Guillebeau","bio":"NYT bestselling author of ''The Happiness of Pursuit'' \u0026 ''The $100 Startup''. Visited every country in the world from 2002-2013.","links":{"self":"http://api.lvh.me:3000/users/chrisguillebeau","html":"http://lvh.me:3000/chrisguillebeau","photos":"http://api.lvh.me:3000/users/chrisguillebeau/photos"}},"links":{"self":"http://api.lvh.me:3000/curated_batches/77","html":"http://lvh.me:3000/curated_batches/77","photos":"http://api.lvh.me:3000/curated_batches/77/photos","download":"https://download.unsplash.com/zip-archives/77-archive.zip"}},{"id":76,"published_at":"2015-04-05T22:55:33-04:00","curator":{"id":"vvASpvocZvo","username":"schneidertobias","name":"Tobias van Schneider","bio":"Lead Product Designer \u0026 Art Director at Spotify in NYC.","links":{"self":"http://api.lvh.me:3000/users/schneidertobias","html":"http://lvh.me:3000/schneidertobias","photos":"http://api.lvh.me:3000/users/schneidertobias/photos"}},"links":{"self":"http://api.lvh.me:3000/curated_batches/76","html":"http://lvh.me:3000/curated_batches/76","photos":"http://api.lvh.me:3000/curated_batches/76/photos","download":"https://download.unsplash.com/zip-archives/76-archive.zip"}},{"id":70,"published_at":"2015-03-26T12:26:33-04:00","curator":{"id":"8VWtlJtne8I","username":"photoshop","name":"Photoshop Team","bio":"The team behind the most powerful image editor in the world.","links":{"self":"http://api.lvh.me:3000/users/photoshop","html":"http://lvh.me:3000/photoshop","photos":"http://api.lvh.me:3000/users/photoshop/photos"}},"links":{"self":"http://api.lvh.me:3000/curated_batches/70","html":"http://lvh.me:3000/curated_batches/70","photos":"http://api.lvh.me:3000/curated_batches/70/photos","download":"https://download.unsplash.com/zip-archives/70-archive.zip"}},{"id":72,"published_at":"2015-03-16T16:44:54-04:00","curator":{"id":"pW2IVqDPnT4","username":"deanbradshaw","name":"Dean Bradshaw","bio":"Advertising photographer/director for brands including National Geographic, Acer, \u0026 American Express.","links":{"self":"http://api.lvh.me:3000/users/deanbradshaw","html":"http://lvh.me:3000/deanbradshaw","photos":"http://api.lvh.me:3000/users/deanbradshaw/photos"}},"links":{"self":"http://api.lvh.me:3000/curated_batches/72","html":"http://lvh.me:3000/curated_batches/72","photos":"http://api.lvh.me:3000/curated_batches/72/photos","download":"https://download.unsplash.com/zip-archives/72-archive.zip"}}]'
-
    request:
        method: GET
        url: 'http://api.lvh.me:3000/curated_batches/68/photos'
        headers:
            Host: 'api.lvh.me:3000'
            Accept-Encoding: null
            User-Agent: 'GuzzleHttp/6.0.2 curl/7.38.0 PHP/5.6.11'
            Authorization: 'Bearer 6552724cd07a5a0e06a4f7e4dce7e316f86b7a2efa1e2df8f7cd0079856d9773'
            Accept: null
    response:
        status:
            http_version: '1.1'
            code: '200'
            message: 'OK '
        headers:
            Access-Control-Allow-Origin: '*'
            Access-Control-Request-Method: '*'
            Cache-Control: 'max-age=7200, public'
            Content-Type: application/json
            Content-Length: '9173'
            Etag: 'W/"cd209e1c807f58e3d28fe708ae0b5201"'
            X-Request-Id: 3d4101f2-c86d-4a4b-846d-b8e99725b09d
            X-Ratelimit-Limit: '5000'
            X-Ratelimit-Remaining: '4980'
            X-Runtime: '0.045195'
            Server: 'WEBrick/1.3.1 (Ruby/2.1.5/2014-11-13)'
            Date: 'Mon, 13 Jul 2015 20:30:11 GMT'
            Connection: Keep-Alive
        body: '[{"id":"V63oM8OPJSo","user":{"id":"3o-LyBBPg30","username":"thomaslefebvre","name":"Thomas Lefebvre","links":{"self":"http://api.lvh.me:3000/users/thomaslefebvre","html":"http://lvh.me:3000/thomaslefebvre","photos":"http://api.lvh.me:3000/users/thomaslefebvre/photos"}},"urls":{"regular":"https://ununsplash.imgix.net/photo-1421284621639-884f4129b61d?q=75\u0026fm=jpg\u0026w=1080\u0026fit=max\u0026s=3faac76464ce10f8fc9cd6f6e3f9af2f","small":"https://ununsplash.imgix.net/photo-1421284621639-884f4129b61d?q=75\u0026fm=jpg\u0026w=400\u0026fit=max\u0026s=87ad4275573ec90459c35457e5b14bef","thumb":"https://ununsplash.imgix.net/photo-1421284621639-884f4129b61d?q=75\u0026fm=jpg\u0026w=200\u0026fit=max\u0026s=2146f808e8ce611a81263cfa60396bcc"},"links":{"self":"http://api.lvh.me:3000/photos/V63oM8OPJSo","html":"http://lvh.me:3000/photos/V63oM8OPJSo","download":"http://lvh.me:3000/photos/V63oM8OPJSo/download"}},{"id":"WDX1rhPQqc4","user":{"id":"vIQcPRBw7v4","username":"oliverberghold","name":"Oliver Berghold","links":{"self":"http://api.lvh.me:3000/users/oliverberghold","html":"http://lvh.me:3000/oliverberghold","photos":"http://api.lvh.me:3000/users/oliverberghold/photos"}},"urls":{"regular":"https://ununsplash.imgix.net/photo-1420708392410-3c593b80d416?q=75\u0026fm=jpg\u0026w=1080\u0026fit=max\u0026s=ef25b9e6bd68e7c019a016402395f3a0","small":"https://ununsplash.imgix.net/photo-1420708392410-3c593b80d416?q=75\u0026fm=jpg\u0026w=400\u0026fit=max\u0026s=e4105a47af05643aafc4f326e67036d1","thumb":"https://ununsplash.imgix.net/photo-1420708392410-3c593b80d416?q=75\u0026fm=jpg\u0026w=200\u0026fit=max\u0026s=80fb454533a3f1487435fbd01a7617aa"},"links":{"self":"http://api.lvh.me:3000/photos/WDX1rhPQqc4","html":"http://lvh.me:3000/photos/WDX1rhPQqc4","download":"http://lvh.me:3000/photos/WDX1rhPQqc4/download"}},{"id":"eHtM8lZrU2A","user":{"id":"po9gD9Nwmy8","username":"hmmrmnn","name":"Joschko Hammermann","links":{"self":"http://api.lvh.me:3000/users/hmmrmnn","html":"http://lvh.me:3000/hmmrmnn","photos":"http://api.lvh.me:3000/users/hmmrmnn/photos"}},"urls":{"regular":"https://unsplash.imgix.net/photo-1414490929659-9a12b7e31907?q=75\u0026fm=jpg\u0026w=1080\u0026fit=max\u0026s=6727c7524f903c4d61c94fc757d86e07","small":"https://unsplash.imgix.net/photo-1414490929659-9a12b7e31907?q=75\u0026fm=jpg\u0026w=400\u0026fit=max\u0026s=72cf1487c5b9d5aa984ae03684831e42","thumb":"https://unsplash.imgix.net/photo-1414490929659-9a12b7e31907?q=75\u0026fm=jpg\u0026w=200\u0026fit=max\u0026s=2b8957a9a50df929b2302523586003a4"},"links":{"self":"http://api.lvh.me:3000/photos/eHtM8lZrU2A","html":"http://lvh.me:3000/photos/eHtM8lZrU2A","download":"http://lvh.me:3000/photos/eHtM8lZrU2A/download"}},{"id":"jinWKnH0m5A","user":{"id":"GxXYxeDbaas","username":"kellysikkema","name":"Kelly Sikkema","links":{"self":"http://api.lvh.me:3000/users/kellysikkema","html":"http://lvh.me:3000/kellysikkema","photos":"http://api.lvh.me:3000/users/kellysikkema/photos"}},"urls":{"regular":"https://ununsplash.imgix.net/photo-1413834932717-29e7d4714192?q=75\u0026fm=jpg\u0026w=1080\u0026fit=max\u0026s=37be296cbdb2ce1798d1740778abb72b","small":"https://ununsplash.imgix.net/photo-1413834932717-29e7d4714192?q=75\u0026fm=jpg\u0026w=400\u0026fit=max\u0026s=859c6eea895182fb88e2b9edc2d50e53","thumb":"https://ununsplash.imgix.net/photo-1413834932717-29e7d4714192?q=75\u0026fm=jpg\u0026w=200\u0026fit=max\u0026s=4a317492a96dc2dc7777bc5a3cf6c3bb"},"links":{"self":"http://api.lvh.me:3000/photos/jinWKnH0m5A","html":"http://lvh.me:3000/photos/jinWKnH0m5A","download":"http://lvh.me:3000/photos/jinWKnH0m5A/download"}},{"id":"2qLT_Rq-2tk","user":{"id":"p7Re2mso2Rw","username":"fresonneveld","name":"Fré Sonneveld","links":{"self":"http://api.lvh.me:3000/users/fresonneveld","html":"http://lvh.me:3000/fresonneveld","photos":"http://api.lvh.me:3000/users/fresonneveld/photos"}},"urls":{"regular":"https://unsplash.imgix.net/uploads/14134890947503c6effdc/72adf455?q=75\u0026fm=jpg\u0026w=1080\u0026fit=max\u0026s=7f5a8b3cc4737f222e7cc9f31d3e8450","small":"https://unsplash.imgix.net/uploads/14134890947503c6effdc/72adf455?q=75\u0026fm=jpg\u0026w=400\u0026fit=max\u0026s=11a1bcecf374ada5e83a52eb90d0aea0","thumb":"https://unsplash.imgix.net/uploads/14134890947503c6effdc/72adf455?q=75\u0026fm=jpg\u0026w=200\u0026fit=max\u0026s=cc107e99bf2c40fe5aa1bc3bd708c6e5"},"links":{"self":"http://api.lvh.me:3000/photos/2qLT_Rq-2tk","html":"http://lvh.me:3000/photos/2qLT_Rq-2tk","download":"http://lvh.me:3000/photos/2qLT_Rq-2tk/download"}},{"id":"vigsqYux_-8","user":{"id":"xOn-rdT4ev0","username":"sarahburvenich","name":"Sarah Bürvenich","links":{"self":"http://api.lvh.me:3000/users/sarahburvenich","html":"http://lvh.me:3000/sarahburvenich","photos":"http://api.lvh.me:3000/users/sarahburvenich/photos"}},"urls":{"regular":"https://unsplash.imgix.net/reserve/vof4H8A1S02iWcK6mSAd_sarahmachtsachen.com_TheBeach.jpg?q=75\u0026fm=jpg\u0026w=1080\u0026fit=max\u0026s=30677bc5d576176b569bf9112b838dd6","small":"https://unsplash.imgix.net/reserve/vof4H8A1S02iWcK6mSAd_sarahmachtsachen.com_TheBeach.jpg?q=75\u0026fm=jpg\u0026w=400\u0026fit=max\u0026s=35c7d87b1e50562263608c2404e73f64","thumb":"https://unsplash.imgix.net/reserve/vof4H8A1S02iWcK6mSAd_sarahmachtsachen.com_TheBeach.jpg?q=75\u0026fm=jpg\u0026w=200\u0026fit=max\u0026s=380820f810a8cc4ca7579606c83e4995"},"links":{"self":"http://api.lvh.me:3000/photos/vigsqYux_-8","html":"http://lvh.me:3000/photos/vigsqYux_-8","download":"http://lvh.me:3000/photos/vigsqYux_-8/download"}},{"id":"D62hQefhteg","user":{"id":"NLMdoMyoU38","username":"ilya","name":"Ilya","links":{"self":"http://api.lvh.me:3000/users/ilya","html":"http://lvh.me:3000/ilya","photos":"http://api.lvh.me:3000/users/ilya/photos"}},"urls":{"regular":"https://unsplash.imgix.net/reserve/N13RIliTTASBbuYyszgq_P9020914-54.jpg?q=75\u0026fm=jpg\u0026w=1080\u0026fit=max\u0026s=7b561518583d7982bfd76681a78ef503","small":"https://unsplash.imgix.net/reserve/N13RIliTTASBbuYyszgq_P9020914-54.jpg?q=75\u0026fm=jpg\u0026w=400\u0026fit=max\u0026s=a83211e503739b1551daaf0c1dbbbc67","thumb":"https://unsplash.imgix.net/reserve/N13RIliTTASBbuYyszgq_P9020914-54.jpg?q=75\u0026fm=jpg\u0026w=200\u0026fit=max\u0026s=735814640ca8d60fe67f0540aa733e06"},"links":{"self":"http://api.lvh.me:3000/photos/D62hQefhteg","html":"http://lvh.me:3000/photos/D62hQefhteg","download":"http://lvh.me:3000/photos/D62hQefhteg/download"}},{"id":"gXSFnk2a9V4","user":{"id":"5J1j1UHuW_k","username":"kimberlyrichards","name":"Kimberly Richards","links":{"self":"http://api.lvh.me:3000/users/kimberlyrichards","html":"http://lvh.me:3000/kimberlyrichards","photos":"http://api.lvh.me:3000/users/kimberlyrichards/photos"}},"urls":{"regular":"https://unsplash.imgix.net/reserve/jEs6K0y1SbK3DAvgrBe5_IMG_3410.jpg?q=75\u0026fm=jpg\u0026w=1080\u0026fit=max\u0026s=93245a15c97d5b23c7a20d4b317404dc","small":"https://unsplash.imgix.net/reserve/jEs6K0y1SbK3DAvgrBe5_IMG_3410.jpg?q=75\u0026fm=jpg\u0026w=400\u0026fit=max\u0026s=2749f098f05c84eada644c7b144275a5","thumb":"https://unsplash.imgix.net/reserve/jEs6K0y1SbK3DAvgrBe5_IMG_3410.jpg?q=75\u0026fm=jpg\u0026w=200\u0026fit=max\u0026s=c043dd0697794d971c2aa093ac9ac3c7"},"links":{"self":"http://api.lvh.me:3000/photos/gXSFnk2a9V4","html":"http://lvh.me:3000/photos/gXSFnk2a9V4","download":"http://lvh.me:3000/photos/gXSFnk2a9V4/download"}},{"id":"leHDA08Lbpc","user":{"id":"qFWagrPlkoc","username":"griffinkeller","name":"Griffin Keller","links":{"self":"http://api.lvh.me:3000/users/griffinkeller","html":"http://lvh.me:3000/griffinkeller","photos":"http://api.lvh.me:3000/users/griffinkeller/photos"}},"urls":{"regular":"https://unsplash.imgix.net/reserve/fqUehZ3ZRru2Kh11qDBT_IMG_0042.jpg?q=75\u0026fm=jpg\u0026w=1080\u0026fit=max\u0026s=ac2da2b5323166f08b1707d7dc002585","small":"https://unsplash.imgix.net/reserve/fqUehZ3ZRru2Kh11qDBT_IMG_0042.jpg?q=75\u0026fm=jpg\u0026w=400\u0026fit=max\u0026s=a67112706d9be08fec6db64cd3e96bac","thumb":"https://unsplash.imgix.net/reserve/fqUehZ3ZRru2Kh11qDBT_IMG_0042.jpg?q=75\u0026fm=jpg\u0026w=200\u0026fit=max\u0026s=b83d7d084a79642e020cff9512581d23"},"links":{"self":"http://api.lvh.me:3000/photos/leHDA08Lbpc","html":"http://lvh.me:3000/photos/leHDA08Lbpc","download":"http://lvh.me:3000/photos/leHDA08Lbpc/download"}},{"id":"MVAckSBxkxI","user":{"id":"IgZYnId_MIQ","username":"melodysy","name":"Melody Sy","links":{"self":"http://api.lvh.me:3000/users/melodysy","html":"http://lvh.me:3000/melodysy","photos":"http://api.lvh.me:3000/users/melodysy/photos"}},"urls":{"regular":"https://unsplash.imgix.net/reserve/NxxLccbqQdGtNc7xJ43e_ancestral-home.jpg?q=75\u0026fm=jpg\u0026w=1080\u0026fit=max\u0026s=e132fbaa848cff62e31800dc1b3056be","small":"https://unsplash.imgix.net/reserve/NxxLccbqQdGtNc7xJ43e_ancestral-home.jpg?q=75\u0026fm=jpg\u0026w=400\u0026fit=max\u0026s=c498f7de7a4bf56fbdfd9b13e396d67d","thumb":"https://unsplash.imgix.net/reserve/NxxLccbqQdGtNc7xJ43e_ancestral-home.jpg?q=75\u0026fm=jpg\u0026w=200\u0026fit=max\u0026s=e2c9520421bd3af649168b6d67d2f501"},"links":{"self":"http://api.lvh.me:3000/photos/MVAckSBxkxI","html":"http://lvh.me:3000/photos/MVAckSBxkxI","download":"http://lvh.me:3000/photos/MVAckSBxkxI/download"}}]'
