
-
    request:
        method: GET
        url: 'http://api.lvh.me:3000/photos/ZUaqqMxtxYk'
        headers:
            Host: 'api.lvh.me:3000'
            Accept-Encoding: null
            User-Agent: 'GuzzleHttp/6.0.2 curl/7.38.0 PHP/5.6.11'
            Authorization: 'Bearer 6552724cd07a5a0e06a4f7e4dce7e316f86b7a2efa1e2df8f7cd0079856d9773'
            Accept: null
    response:
        status:
            http_version: '1.1'
            code: '200'
            message: 'OK '
        headers:
            Access-Control-Allow-Origin: '*'
            Access-Control-Request-Method: '*'
            Cache-Control: 'max-age=7200, public'
            Content-Type: application/json
            Content-Length: '936'
            Etag: 'W/"ada9e69008d81fd922c2671c19ae1d31"'
            X-Request-Id: cc61591a-0fe0-4c02-97c8-fa0b2212d392
            X-Ratelimit-Limit: '5000'
            X-Ratelimit-Remaining: '4978'
            X-Runtime: '0.034326'
            Server: 'WEBrick/1.3.1 (Ruby/2.1.5/2014-11-13)'
            Date: 'Mon, 13 Jul 2015 20:30:11 GMT'
            Connection: Keep-Alive
        body: '{"id":"ZUaqqMxtxYk","width":4608,"height":3072,"color":"#5E7285","urls":{"regular":"https://unsplash.imgix.net/photo-1428681756973-d318f055795a?q=75\u0026fm=jpg\u0026w=1080\u0026fit=max\u0026s=1e42060181854ebad501daf0b25865ee","small":"https://unsplash.imgix.net/photo-1428681756973-d318f055795a?q=75\u0026fm=jpg\u0026w=400\u0026fit=max\u0026s=41bfa165f9e35bbaad529ea9a0029a3e","thumb":"https://unsplash.imgix.net/photo-1428681756973-d318f055795a?q=75\u0026fm=jpg\u0026w=200\u0026fit=max\u0026s=b223d24e28ba1ced6731e98d46cd5f83"},"links":{"self":"http://api.lvh.me:3000/photos/ZUaqqMxtxYk","html":"http://lvh.me:3000/photos/ZUaqqMxtxYk","download":"http://lvh.me:3000/photos/ZUaqqMxtxYk/download"},"user":{"id":"RWFu3buoUS0","username":"andy_brunner","name":"Andy Brunner","links":{"self":"http://api.lvh.me:3000/users/andy_brunner","html":"http://lvh.me:3000/andy_brunner","photos":"http://api.lvh.me:3000/users/andy_brunner/photos"}}}'
-
    request:
        method: GET
        url: 'http://api.lvh.me:3000/photos?page=1&per_page=10'
        headers:
            Host: 'api.lvh.me:3000'
            Accept-Encoding: null
            User-Agent: 'GuzzleHttp/6.0.2 curl/7.38.0 PHP/5.6.11'
            Authorization: 'Bearer 6552724cd07a5a0e06a4f7e4dce7e316f86b7a2efa1e2df8f7cd0079856d9773'
            Accept: null
    response:
        status:
            http_version: '1.1'
            code: '200'
            message: 'OK '
        headers:
            Access-Control-Allow-Origin: '*'
            Access-Control-Request-Method: '*'
            Link: '<http://api.lvh.me:3000/photos?page=380&per_page=10>; rel="last", <http://api.lvh.me:3000/photos?page=2&per_page=10>; rel="next"'
            X-Total: '3795'
            X-Per-Page: '10'
            Cache-Control: 'max-age=7200, public'
            Content-Type: application/json
            Content-Length: '8900'
            Etag: 'W/"65d874a0a628c5d9d421ece624279184"'
            X-Request-Id: c397abd4-42d1-48a0-bd69-1abdfe28fc5a
            X-Ratelimit-Limit: '5000'
            X-Ratelimit-Remaining: '4977'
            X-Runtime: '0.087128'
            Server: 'WEBrick/1.3.1 (Ruby/2.1.5/2014-11-13)'
            Date: 'Mon, 13 Jul 2015 20:30:12 GMT'
            Connection: Keep-Alive
        body: '[{"id":"-FWYRBvQjc0","user":{"id":"ICUu3EvQXv8","username":"andrewjohnp","name":"Andrew Phillips","links":{"self":"http://api.lvh.me:3000/users/andrewjohnp","html":"http://lvh.me:3000/andrewjohnp","photos":"http://api.lvh.me:3000/users/andrewjohnp/photos"}},"urls":{"regular":"https://ununsplash.imgix.net/photo-1434398875605-b700dab994fe?q=75\u0026fm=jpg\u0026w=1080\u0026fit=max\u0026s=45dd71e558e6f0f9e9cfdb3c58438cad","small":"https://ununsplash.imgix.net/photo-1434398875605-b700dab994fe?q=75\u0026fm=jpg\u0026w=400\u0026fit=max\u0026s=739947632e3a28ff494b85434bb98820","thumb":"https://ununsplash.imgix.net/photo-1434398875605-b700dab994fe?q=75\u0026fm=jpg\u0026w=200\u0026fit=max\u0026s=79f9fb61f67a6692943dbea15e25c1e0"},"links":{"self":"http://api.lvh.me:3000/photos/-FWYRBvQjc0","html":"http://lvh.me:3000/photos/-FWYRBvQjc0","download":"http://lvh.me:3000/photos/-FWYRBvQjc0/download"}},{"id":"B0GDnkMEC0Y","user":{"id":"7VotA9sc3vQ","username":"aleskrivec","name":"Ales Krivec","links":{"self":"http://api.lvh.me:3000/users/aleskrivec","html":"http://lvh.me:3000/aleskrivec","photos":"http://api.lvh.me:3000/users/aleskrivec/photos"}},"urls":{"regular":"https://ununsplash.imgix.net/photo-1434397940728-5e4513152691?q=75\u0026fm=jpg\u0026w=1080\u0026fit=max\u0026s=e9a06ccf38f4efe075096aeed7056d9b","small":"https://ununsplash.imgix.net/photo-1434397940728-5e4513152691?q=75\u0026fm=jpg\u0026w=400\u0026fit=max\u0026s=4f52137fc1373d63910f0c3bf1599b28","thumb":"https://ununsplash.imgix.net/photo-1434397940728-5e4513152691?q=75\u0026fm=jpg\u0026w=200\u0026fit=max\u0026s=d705390f91d216a331c3027c68a6a931"},"links":{"self":"http://api.lvh.me:3000/photos/B0GDnkMEC0Y","html":"http://lvh.me:3000/photos/B0GDnkMEC0Y","download":"http://lvh.me:3000/photos/B0GDnkMEC0Y/download"}},{"id":"sg7rta_6EE8","user":{"id":"ICUu3EvQXv8","username":"andrewjohnp","name":"Andrew Phillips","links":{"self":"http://api.lvh.me:3000/users/andrewjohnp","html":"http://lvh.me:3000/andrewjohnp","photos":"http://api.lvh.me:3000/users/andrewjohnp/photos"}},"urls":{"regular":"https://ununsplash.imgix.net/photo-1434396505260-9ec0d6491795?q=75\u0026fm=jpg\u0026w=1080\u0026fit=max\u0026s=eb4d6aa24b8aa4c510a59798c0af00d9","small":"https://ununsplash.imgix.net/photo-1434396505260-9ec0d6491795?q=75\u0026fm=jpg\u0026w=400\u0026fit=max\u0026s=f32583668c6c51b50ac4c6d220dbf06d","thumb":"https://ununsplash.imgix.net/photo-1434396505260-9ec0d6491795?q=75\u0026fm=jpg\u0026w=200\u0026fit=max\u0026s=51705399f8e7b5f889c817555d95cc7f"},"links":{"self":"http://api.lvh.me:3000/photos/sg7rta_6EE8","html":"http://lvh.me:3000/photos/sg7rta_6EE8","download":"http://lvh.me:3000/photos/sg7rta_6EE8/download"}},{"id":"A2Mk17sKD-8","user":{"id":"7VotA9sc3vQ","username":"aleskrivec","name":"Ales Krivec","links":{"self":"http://api.lvh.me:3000/users/aleskrivec","html":"http://lvh.me:3000/aleskrivec","photos":"http://api.lvh.me:3000/users/aleskrivec/photos"}},"urls":{"regular":"https://ununsplash.imgix.net/photo-1434394872995-8739bbb0c98d?q=75\u0026fm=jpg\u0026w=1080\u0026fit=max\u0026s=20c3c09183d28447ce11fbe4175f6e96","small":"https://ununsplash.imgix.net/photo-1434394872995-8739bbb0c98d?q=75\u0026fm=jpg\u0026w=400\u0026fit=max\u0026s=96c2f194a7c83c6ba240967b49b5d4df","thumb":"https://ununsplash.imgix.net/photo-1434394872995-8739bbb0c98d?q=75\u0026fm=jpg\u0026w=200\u0026fit=max\u0026s=e898378a33013aa615bff4a4b7b02c97"},"links":{"self":"http://api.lvh.me:3000/photos/A2Mk17sKD-8","html":"http://lvh.me:3000/photos/A2Mk17sKD-8","download":"http://lvh.me:3000/photos/A2Mk17sKD-8/download"}},{"id":"tBkUAsDwbq0","user":{"id":"7VotA9sc3vQ","username":"aleskrivec","name":"Ales Krivec","links":{"self":"http://api.lvh.me:3000/users/aleskrivec","html":"http://lvh.me:3000/aleskrivec","photos":"http://api.lvh.me:3000/users/aleskrivec/photos"}},"urls":{"regular":"https://unsplash.imgix.net/photo-1434394717884-0b03bc6d7e56?q=75\u0026fm=jpg\u0026w=1080\u0026fit=max\u0026s=90e8ffc15c6a2ccf0606567f8006233a","small":"https://unsplash.imgix.net/photo-1434394717884-0b03bc6d7e56?q=75\u0026fm=jpg\u0026w=400\u0026fit=max\u0026s=94ff0fe8634c0f9e1dcf6d783c513ab6","thumb":"https://unsplash.imgix.net/photo-1434394717884-0b03bc6d7e56?q=75\u0026fm=jpg\u0026w=200\u0026fit=max\u0026s=26db4d65caa80eea34da7473da41a0aa"},"links":{"self":"http://api.lvh.me:3000/photos/tBkUAsDwbq0","html":"http://lvh.me:3000/photos/tBkUAsDwbq0","download":"http://lvh.me:3000/photos/tBkUAsDwbq0/download"}},{"id":"duoMdMm3aY0","user":{"id":"7VotA9sc3vQ","username":"aleskrivec","name":"Ales Krivec","links":{"self":"http://api.lvh.me:3000/users/aleskrivec","html":"http://lvh.me:3000/aleskrivec","photos":"http://api.lvh.me:3000/users/aleskrivec/photos"}},"urls":{"regular":"https://ununsplash.imgix.net/photo-1434394673726-e8232a5903b4?q=75\u0026fm=jpg\u0026w=1080\u0026fit=max\u0026s=a361855e0469c161aa788ef4a01e474f","small":"https://ununsplash.imgix.net/photo-1434394673726-e8232a5903b4?q=75\u0026fm=jpg\u0026w=400\u0026fit=max\u0026s=155f7c302cab26b15f792d24f9d016fd","thumb":"https://ununsplash.imgix.net/photo-1434394673726-e8232a5903b4?q=75\u0026fm=jpg\u0026w=200\u0026fit=max\u0026s=98e3df6986ea6fddedb69bfeef46975c"},"links":{"self":"http://api.lvh.me:3000/photos/duoMdMm3aY0","html":"http://lvh.me:3000/photos/duoMdMm3aY0","download":"http://lvh.me:3000/photos/duoMdMm3aY0/download"}},{"id":"CgGu2C3RjDc","user":{"id":"7VotA9sc3vQ","username":"aleskrivec","name":"Ales Krivec","links":{"self":"http://api.lvh.me:3000/users/aleskrivec","html":"http://lvh.me:3000/aleskrivec","photos":"http://api.lvh.me:3000/users/aleskrivec/photos"}},"urls":{"regular":"https://ununsplash.imgix.net/photo-1434394566634-da0fa7e334b8?q=75\u0026fm=jpg\u0026w=1080\u0026fit=max\u0026s=6404bbba787f97b86b311275b3382204","small":"https://ununsplash.imgix.net/photo-1434394566634-da0fa7e334b8?q=75\u0026fm=jpg\u0026w=400\u0026fit=max\u0026s=e85679c3b7d5685b8a8b07527c263e08","thumb":"https://ununsplash.imgix.net/photo-1434394566634-da0fa7e334b8?q=75\u0026fm=jpg\u0026w=200\u0026fit=max\u0026s=561adbb5c1b926d5bc69ef13f999e7e6"},"links":{"self":"http://api.lvh.me:3000/photos/CgGu2C3RjDc","html":"http://lvh.me:3000/photos/CgGu2C3RjDc","download":"http://lvh.me:3000/photos/CgGu2C3RjDc/download"}},{"id":"N-aTikX-b00","user":{"id":"7VotA9sc3vQ","username":"aleskrivec","name":"Ales Krivec","links":{"self":"http://api.lvh.me:3000/users/aleskrivec","html":"http://lvh.me:3000/aleskrivec","photos":"http://api.lvh.me:3000/users/aleskrivec/photos"}},"urls":{"regular":"https://unsplash.imgix.net/photo-1434394354979-a235cd36269d?q=75\u0026fm=jpg\u0026w=1080\u0026fit=max\u0026s=462fb90a66647cb40a39edd23aeee25c","small":"https://unsplash.imgix.net/photo-1434394354979-a235cd36269d?q=75\u0026fm=jpg\u0026w=400\u0026fit=max\u0026s=ca0331f8863c7d64200d266070e01839","thumb":"https://unsplash.imgix.net/photo-1434394354979-a235cd36269d?q=75\u0026fm=jpg\u0026w=200\u0026fit=max\u0026s=6efb9913bcd2cacd027df7faeea0962b"},"links":{"self":"http://api.lvh.me:3000/photos/N-aTikX-b00","html":"http://lvh.me:3000/photos/N-aTikX-b00","download":"http://lvh.me:3000/photos/N-aTikX-b00/download"}},{"id":"SggfyXDxs2g","user":{"id":"9CTe_QgYbOI","username":"axelldotcom","name":"axell dotcom","links":{"self":"http://api.lvh.me:3000/users/axelldotcom","html":"http://lvh.me:3000/axelldotcom","photos":"http://api.lvh.me:3000/users/axelldotcom/photos"}},"urls":{"regular":"https://ununsplash.imgix.net/photo-1434393493133-00c371247786?q=75\u0026fm=jpg\u0026w=1080\u0026fit=max\u0026s=b8fb2f580c0b0c20991479b8b5976c51","small":"https://ununsplash.imgix.net/photo-1434393493133-00c371247786?q=75\u0026fm=jpg\u0026w=400\u0026fit=max\u0026s=0a7f40f14ee84cabc8cf6d2f0a4888c2","thumb":"https://ununsplash.imgix.net/photo-1434393493133-00c371247786?q=75\u0026fm=jpg\u0026w=200\u0026fit=max\u0026s=c303ddc0b520c680c11de9b2aa5cf8ac"},"links":{"self":"http://api.lvh.me:3000/photos/SggfyXDxs2g","html":"http://lvh.me:3000/photos/SggfyXDxs2g","download":"http://lvh.me:3000/photos/SggfyXDxs2g/download"}},{"id":"QKJS5weK1KA","user":{"id":"CnXlJw1IBJk","username":"nathanreed","name":"Nathan Reed","links":{"self":"http://api.lvh.me:3000/users/nathanreed","html":"http://lvh.me:3000/nathanreed","photos":"http://api.lvh.me:3000/users/nathanreed/photos"}},"urls":{"regular":"https://ununsplash.imgix.net/photo-1434391919246-e83530f602af?q=75\u0026fm=jpg\u0026w=1080\u0026fit=max\u0026s=1fbd379fd62547639b8fc02f8f285c7d","small":"https://ununsplash.imgix.net/photo-1434391919246-e83530f602af?q=75\u0026fm=jpg\u0026w=400\u0026fit=max\u0026s=ce4d08156c6026695ee38f7290fa6200","thumb":"https://ununsplash.imgix.net/photo-1434391919246-e83530f602af?q=75\u0026fm=jpg\u0026w=200\u0026fit=max\u0026s=ba7f1e9bfc4d03458c5fd7e375fc7e69"},"links":{"self":"http://api.lvh.me:3000/photos/QKJS5weK1KA","html":"http://lvh.me:3000/photos/QKJS5weK1KA","download":"http://lvh.me:3000/photos/QKJS5weK1KA/download"}}]'
-
    request:
        method: GET
        url: 'http://api.lvh.me:3000/photos/search?query=coffee&page=1&per_page=10'
        headers:
            Host: 'api.lvh.me:3000'
            Accept-Encoding: null
            User-Agent: 'GuzzleHttp/6.0.2 curl/7.38.0 PHP/5.6.11'
            Authorization: 'Bearer 6552724cd07a5a0e06a4f7e4dce7e316f86b7a2efa1e2df8f7cd0079856d9773'
            Accept: null
    response:
        status:
            http_version: '1.1'
            code: '200'
            message: 'OK '
        headers:
            Access-Control-Allow-Origin: '*'
            Access-Control-Request-Method: '*'
            Link: '<http://api.lvh.me:3000/photos/search?page=5&per_page=10&query=coffee>; rel="last", <http://api.lvh.me:3000/photos/search?page=2&per_page=10&query=coffee>; rel="next"'
            X-Total: '45'
            X-Per-Page: '10'
            Cache-Control: 'max-age=7200, public'
            Content-Type: application/json
            Content-Length: '8972'
            Etag: 'W/"5eec3d6320b7195951f37cd58fb8fe78"'
            X-Request-Id: 6369c0eb-0e1e-4eb0-bdb4-0d08bd8d9d83
            X-Ratelimit-Limit: '5000'
            X-Ratelimit-Remaining: '4976'
            X-Runtime: '0.101938'
            Server: 'WEBrick/1.3.1 (Ruby/2.1.5/2014-11-13)'
            Date: 'Mon, 13 Jul 2015 20:30:12 GMT'
            Connection: Keep-Alive
        body: '[{"id":"zWN6wfm-Yo8","user":{"id":"-zvk4s_FIw8","username":"inayali","name":"Ali Inay","links":{"self":"http://api.lvh.me:3000/users/inayali","html":"http://lvh.me:3000/inayali","photos":"http://api.lvh.me:3000/users/inayali/photos"}},"urls":{"regular":"https://ununsplash.imgix.net/photo-1414542158951-f32d326a4820?q=75\u0026fm=jpg\u0026w=1080\u0026fit=max\u0026s=1e3e3ff1e3286596f7a5bdf737e734ff","small":"https://ununsplash.imgix.net/photo-1414542158951-f32d326a4820?q=75\u0026fm=jpg\u0026w=400\u0026fit=max\u0026s=01d824771f9c4e77e2a5807607a0cc4b","thumb":"https://ununsplash.imgix.net/photo-1414542158951-f32d326a4820?q=75\u0026fm=jpg\u0026w=200\u0026fit=max\u0026s=949ecabc8306caf7c0019c65c597b7a4"},"links":{"self":"http://api.lvh.me:3000/photos/zWN6wfm-Yo8","html":"http://lvh.me:3000/photos/zWN6wfm-Yo8","download":"http://lvh.me:3000/photos/zWN6wfm-Yo8/download"}},{"id":"nBoPjadlesc","user":{"id":"SYwXsFXtvs8","username":"jwwhitt","name":"Jordan Whitt","links":{"self":"http://api.lvh.me:3000/users/jwwhitt","html":"http://lvh.me:3000/jwwhitt","photos":"http://api.lvh.me:3000/users/jwwhitt/photos"}},"urls":{"regular":"https://unsplash.imgix.net/photo-1421986598195-0d9c26ecfcde?q=75\u0026fm=jpg\u0026w=1080\u0026fit=max\u0026s=6c5e26704ac8f1e365d2315b0a1b016a","small":"https://unsplash.imgix.net/photo-1421986598195-0d9c26ecfcde?q=75\u0026fm=jpg\u0026w=400\u0026fit=max\u0026s=5ae0df9517a587c5e3f0f8d4cf97fa79","thumb":"https://unsplash.imgix.net/photo-1421986598195-0d9c26ecfcde?q=75\u0026fm=jpg\u0026w=200\u0026fit=max\u0026s=6273debfcf9937d52130225715452f5b"},"links":{"self":"http://api.lvh.me:3000/photos/nBoPjadlesc","html":"http://lvh.me:3000/photos/nBoPjadlesc","download":"http://lvh.me:3000/photos/nBoPjadlesc/download"}},{"id":"MZx2uowz-o0","user":{"id":"LJWDIrwFpeA","username":"negativespace","name":"Luis Llerena","links":{"self":"http://api.lvh.me:3000/users/negativespace","html":"http://lvh.me:3000/negativespace","photos":"http://api.lvh.me:3000/users/negativespace/photos"}},"urls":{"regular":"https://ununsplash.imgix.net/photo-1429032021766-c6a53949594f?q=75\u0026fm=jpg\u0026w=1080\u0026fit=max\u0026s=0a03071077cbe793e7559535e290da60","small":"https://ununsplash.imgix.net/photo-1429032021766-c6a53949594f?q=75\u0026fm=jpg\u0026w=400\u0026fit=max\u0026s=8cb6699a3e9d7154105a438cb2a4ea29","thumb":"https://ununsplash.imgix.net/photo-1429032021766-c6a53949594f?q=75\u0026fm=jpg\u0026w=200\u0026fit=max\u0026s=4d8e10c54e9521b00d7a846916d171ea"},"links":{"self":"http://api.lvh.me:3000/photos/MZx2uowz-o0","html":"http://lvh.me:3000/photos/MZx2uowz-o0","download":"http://lvh.me:3000/photos/MZx2uowz-o0/download"}},{"id":"MHM_al3KqIQ","user":{"id":"Tx4szAjJAQc","username":"danielruswick","name":"Daniel Ruswick","links":{"self":"http://api.lvh.me:3000/users/danielruswick","html":"http://lvh.me:3000/danielruswick","photos":"http://api.lvh.me:3000/users/danielruswick/photos"}},"urls":{"regular":"https://unsplash.imgix.net/44/E5KMvPp9SsCnqmEGUwAS_2014-08-10%2012.56.40%201.jpg?q=75\u0026fm=jpg\u0026w=1080\u0026fit=max\u0026s=8451026df57a02d4b366c01b2353ef46","small":"https://unsplash.imgix.net/44/E5KMvPp9SsCnqmEGUwAS_2014-08-10%2012.56.40%201.jpg?q=75\u0026fm=jpg\u0026w=400\u0026fit=max\u0026s=35076384d6d8834633e2e06d5a8826f7","thumb":"https://unsplash.imgix.net/44/E5KMvPp9SsCnqmEGUwAS_2014-08-10%2012.56.40%201.jpg?q=75\u0026fm=jpg\u0026w=200\u0026fit=max\u0026s=e8eccc966c60956fc96d593cb371887b"},"links":{"self":"http://api.lvh.me:3000/photos/MHM_al3KqIQ","html":"http://lvh.me:3000/photos/MHM_al3KqIQ","download":"http://lvh.me:3000/photos/MHM_al3KqIQ/download"}},{"id":"EhUH4OVjsdc","user":{"id":"Yts8xMxIhJU","username":"glencarrie","name":"Glen Carrie","links":{"self":"http://api.lvh.me:3000/users/glencarrie","html":"http://lvh.me:3000/glencarrie","photos":"http://api.lvh.me:3000/users/glencarrie/photos"}},"urls":{"regular":"https://unsplash.imgix.net/uploads/141132428651583f8c0fd/5cde60f6?q=75\u0026fm=jpg\u0026w=1080\u0026fit=max\u0026s=a86cb1d3539b5d40a2b818d8734f43ac","small":"https://unsplash.imgix.net/uploads/141132428651583f8c0fd/5cde60f6?q=75\u0026fm=jpg\u0026w=400\u0026fit=max\u0026s=0c80c881ae9feba3c63fa506a14cb0be","thumb":"https://unsplash.imgix.net/uploads/141132428651583f8c0fd/5cde60f6?q=75\u0026fm=jpg\u0026w=200\u0026fit=max\u0026s=a53ae5e2ac7e30ee736fdc20106ed2c3"},"links":{"self":"http://api.lvh.me:3000/photos/EhUH4OVjsdc","html":"http://lvh.me:3000/photos/EhUH4OVjsdc","download":"http://lvh.me:3000/photos/EhUH4OVjsdc/download"}},{"id":"6ZnhM-xBpos","user":{"id":"A5eLOaZaBpM","username":"jeremydgreat","name":"Jeremy Ricketts","links":{"self":"http://api.lvh.me:3000/users/jeremydgreat","html":"http://lvh.me:3000/jeremydgreat","photos":"http://api.lvh.me:3000/users/jeremydgreat/photos"}},"urls":{"regular":"https://ununsplash.imgix.net/photo-1428550443830-190057dc8098?q=75\u0026fm=jpg\u0026w=1080\u0026fit=max\u0026s=d593411ba9ce3ebf385614c3061d124b","small":"https://ununsplash.imgix.net/photo-1428550443830-190057dc8098?q=75\u0026fm=jpg\u0026w=400\u0026fit=max\u0026s=15111f2a0862f8383ef8eaed758b2f8a","thumb":"https://ununsplash.imgix.net/photo-1428550443830-190057dc8098?q=75\u0026fm=jpg\u0026w=200\u0026fit=max\u0026s=28467b994b88a2f371bdf6b3c4fab3a7"},"links":{"self":"http://api.lvh.me:3000/photos/6ZnhM-xBpos","html":"http://lvh.me:3000/photos/6ZnhM-xBpos","download":"http://lvh.me:3000/photos/6ZnhM-xBpos/download"}},{"id":"JS-QXqSGVE8","user":{"id":"198lJe5EMQY","username":"alexjones","name":"Alex Jones","links":{"self":"http://api.lvh.me:3000/users/alexjones","html":"http://lvh.me:3000/alexjones","photos":"http://api.lvh.me:3000/users/alexjones/photos"}},"urls":{"regular":"https://ununsplash.imgix.net/photo-1414808549009-35951c724e9f?q=75\u0026fm=jpg\u0026w=1080\u0026fit=max\u0026s=4a7093c08b0ea268419d20214761b374","small":"https://ununsplash.imgix.net/photo-1414808549009-35951c724e9f?q=75\u0026fm=jpg\u0026w=400\u0026fit=max\u0026s=d19013412e692f7959def2c4eb460bc0","thumb":"https://ununsplash.imgix.net/photo-1414808549009-35951c724e9f?q=75\u0026fm=jpg\u0026w=200\u0026fit=max\u0026s=42725e1ba2951f1e34e5ef0b1ce42f53"},"links":{"self":"http://api.lvh.me:3000/photos/JS-QXqSGVE8","html":"http://lvh.me:3000/photos/JS-QXqSGVE8","download":"http://lvh.me:3000/photos/JS-QXqSGVE8/download"}},{"id":"tZKwLRO904E","user":{"id":"OIPmUtomtZ4","username":"drewcoffman","name":"Drew Coffman","links":{"self":"http://api.lvh.me:3000/users/drewcoffman","html":"http://lvh.me:3000/drewcoffman","photos":"http://api.lvh.me:3000/users/drewcoffman/photos"}},"urls":{"regular":"https://unsplash.imgix.net/photo-1413745094207-a01b234cc32f?q=75\u0026fm=jpg\u0026w=1080\u0026fit=max\u0026s=231ee5174e76ec304f59133785efb47f","small":"https://unsplash.imgix.net/photo-1413745094207-a01b234cc32f?q=75\u0026fm=jpg\u0026w=400\u0026fit=max\u0026s=afa98b230ced43647013934b0279569a","thumb":"https://unsplash.imgix.net/photo-1413745094207-a01b234cc32f?q=75\u0026fm=jpg\u0026w=200\u0026fit=max\u0026s=fdd38dd5353e29d265e8682672c03f4b"},"links":{"self":"http://api.lvh.me:3000/photos/tZKwLRO904E","html":"http://lvh.me:3000/photos/tZKwLRO904E","download":"http://lvh.me:3000/photos/tZKwLRO904E/download"}},{"id":"94taEmdowRw","user":{"id":"5hQaNRnuSEM","username":"dogancanozturan","name":"Dogancan Ozturan","links":{"self":"http://api.lvh.me:3000/users/dogancanozturan","html":"http://lvh.me:3000/dogancanozturan","photos":"http://api.lvh.me:3000/users/dogancanozturan/photos"}},"urls":{"regular":"https://unsplash.imgix.net/41/EOZpjI3oSqKPNnF2S4Tp_Untitled.jpg?q=75\u0026fm=jpg\u0026w=1080\u0026fit=max\u0026s=0fb1a88de1b30950f6a1154302205348","small":"https://unsplash.imgix.net/41/EOZpjI3oSqKPNnF2S4Tp_Untitled.jpg?q=75\u0026fm=jpg\u0026w=400\u0026fit=max\u0026s=c3cd5b73d39a8e394da12bac8fc93eed","thumb":"https://unsplash.imgix.net/41/EOZpjI3oSqKPNnF2S4Tp_Untitled.jpg?q=75\u0026fm=jpg\u0026w=200\u0026fit=max\u0026s=4343f709e2271ba735600d04a15829f3"},"links":{"self":"http://api.lvh.me:3000/photos/94taEmdowRw","html":"http://lvh.me:3000/photos/94taEmdowRw","download":"http://lvh.me:3000/photos/94taEmdowRw/download"}},{"id":"4vr9a_sdJ78","user":{"id":"Ul0QVz12Goo","username":"ugmonk","name":"Jeff Sheldon","links":{"self":"http://api.lvh.me:3000/users/ugmonk","html":"http://lvh.me:3000/ugmonk","photos":"http://api.lvh.me:3000/users/ugmonk/photos"}},"urls":{"regular":"https://unsplash.imgix.net/photo-1415226581130-91cb7f52f078?q=75\u0026fm=jpg\u0026w=1080\u0026fit=max\u0026s=30b1fceb6990a8c2252fbbec734fc5a8","small":"https://unsplash.imgix.net/photo-1415226581130-91cb7f52f078?q=75\u0026fm=jpg\u0026w=400\u0026fit=max\u0026s=7da977e085e8b7664f8d2b4185dcf5f1","thumb":"https://unsplash.imgix.net/photo-1415226581130-91cb7f52f078?q=75\u0026fm=jpg\u0026w=200\u0026fit=max\u0026s=6e15fd9be24e3f5a2e7e27cda8c0e87c"},"links":{"self":"http://api.lvh.me:3000/photos/4vr9a_sdJ78","html":"http://lvh.me:3000/photos/4vr9a_sdJ78","download":"http://lvh.me:3000/photos/4vr9a_sdJ78/download"}}]'
-
    request:
        method: GET
        url: 'http://api.lvh.me:3000/users/andy_brunner'
        headers:
            Host: 'api.lvh.me:3000'
            Accept-Encoding: null
            User-Agent: 'GuzzleHttp/6.0.2 curl/7.38.0 PHP/5.6.11'
            Authorization: 'Bearer 6552724cd07a5a0e06a4f7e4dce7e316f86b7a2efa1e2df8f7cd0079856d9773'
            Accept: null
    response:
        status:
            http_version: '1.1'
            code: '200'
            message: 'OK '
        headers:
            Access-Control-Allow-Origin: '*'
            Access-Control-Request-Method: '*'
            Cache-Control: 'max-age=7200, public'
            Content-Type: application/json
            Content-Length: '266'
            Etag: 'W/"28c1f350472ae5f8c993492b78517528"'
            X-Request-Id: 29d921f3-34ad-42af-952d-9a17f2fecd43
            X-Ratelimit-Limit: '5000'
            X-Ratelimit-Remaining: '4975'
            X-Runtime: '0.025979'
            Server: 'WEBrick/1.3.1 (Ruby/2.1.5/2014-11-13)'
            Date: 'Mon, 13 Jul 2015 20:30:12 GMT'
            Connection: Keep-Alive
        body: '{"username":"andy_brunner","first_name":"Andy","last_name":"Brunner","portfolio_url":"http://abdata.ch","links":{"self":"http://api.lvh.me:3000/users/andy_brunner","html":"http://lvh.me:3000/andy_brunner","photos":"http://api.lvh.me:3000/users/andy_brunner/photos"}}'
